83

7
<7I*IE=p 
CsO!
1}>xh>
j
,(b[q!S:!a
cv-7Gcf8
5>N0<";*=
5 2 6 4 3 1 7
5 3 4 1 6 2 7
7 2 1 5 3 4 6
6 5 4 3 7 2 1
4 3 2 7 1 5 6
5 7 6 4 1 2 3
6 4 2 3 1 7 5
7 5 1 4 3 2 6
4 6 1 7 3 5 2
1 5 3 7 4 6 2
7 3 5 1 4 6 2
1 5 7 6 3 2 4
3 6 4 1 2 5 7
7 5 4 6 3 2 1
1 7 3 2 6 4 5
5 3 1 6 7 2 4
1 7 6 3 2 5 4
3 2 1 6 5 4 7
2 5 7 3 6 1 4

6
(2nk"J
Ywajc7
}<$|&U__
:1V2
E
S*c^'<5h
4 5 2 3 6 1
6 2 1 4 3 5
5 4 2 3 1 6
4 5 2 1 3 6
3 6 5 4 2 1
4 3 5 1 6 2
1 4 6 5 3 2
3 4 5 6 2 1
5 2 4 3 6 1
6 1 4 5 3 2
1 5 6 2 4 3
2 4 3 6 5 1
3 6 2 1 4 5
5 6 1 2 3 4
6 4 1 3 5 2
6 1 4 3 2 5
2 6 5 4 3 1
6 4 2 1 3 5
2 1 6 4 3 5
3 6 5 4 1 2
3 2 4 6 1 5
4 5 2 6 3 1
6 1 2 3 4 5
4 1 3 6 2 5
6 2 4 3 5 1
4 6 5 3 1 2

2
HY{1AEWzIz
>1HkGiS
1 2
2 1
1 2
2 1
1 2
2 1
1 2
1 2
1 2
2 1
2 1
2 1
1 2
2 1
2 1
1 2
2 1
1 2
2 1
2 1
2 1
1 2
1 2
1 2
2 1
2 1
2 1
1 2
2 1
2 1
1 2
2 1
2 1
1 2
2 1
2 1
1 2
2 1
1 2
1 2
1 2
2 1
2 1
1 2
1 2
1 2
2 1
1 2
2 1
1 2
2 1
2 1
1 2
1 2
1 2
1 2
2 1
2 1
1 2
1 2
2 1
2 1
1 2
1 2
2 1
2 1

9
g{K
E@C%fH(q
j
,m
6>GZh#!I.
>N+-K;^
Pn>x*0v1"
=0t)cP1
)\z
4 6 8 9 7 2 3 5 1
4 3 1 9 2 5 8 6 7
4 3 2 9 6 7 5 8 1
5 7 2 9 3 4 8 1 6
6 8 9 7 3 4 1 5 2
4 6 9 1 2 5 8 3 7
9 6 3 4 2 1 5 8 7
4 1 3 5 7 6 2 8 9
4 7 2 9 8 1 5 3 6
7 2 5 9 6 3 1 4 8
9 3 2 1 6 4 5 7 8
1 8 6 2 3 4 5 7 9
2 8 6 1 3 9 5 7 4
2 6 1 4 3 8 9 5 7
8 7 9 4 6 1 5 3 2
6 2 3 7 9 4 1 8 5
8 5 6 2 9 4 7 1 3
7 8 4 2 6 3 9 1 5
6 4 1 8 2 3 7 5 9
6 2 3 5 9 1 4 7 8
8 4 9 5 3 1 2 6 7
9 1 6 5 2 8 7 3 4
1 7 4 2 5 9 6 8 3
4 6 9 3 7 2 5 8 1
2 8 3 9 7 4 6 5 1
1 7 4 5 8 2 3 6 9
7 5 4 8 6 1 3 2 9
6 4 2 3 9 5 7 1 8
7 6 2 5 4 9 3 1 8
6 9 2 5 8 4 7 1 3
2 1 3 5 7 9 4 6 8
2 5 6 8 3 7 1 9 4
5 6 9 1 3 8 7 2 4
7 3 8 4 1 9 6 5 2
4 2 1 3 6 8 9 7 5
6 4 2 3 8 5 7 9 1
8 4 2 3 6 7 9 1 5
9 3 7 4 2 8 6 5 1
5 3 4 8 6 9 2 7 1
5 9 4 1 2 6 7 3 8
8 5 1 9 7 2 3 6 4
2 4 7 9 8 1 5 3 6
6 5 8 1 4 9 7 3 2
1 3 6 2 8 7 9 4 5
2 9 4 7 5 1 6 8 3
6 3 7 2 9 4 1 8 5
3 8 7 6 4 5 9 1 2
4 8 3 2 6 5 9 1 7
2 5 8 1 6 7 4 9 3
1 7 2 8 3 5 9 4 6
5 7 9 8 4 1 6 2 3
5 6 4 8 7 9 2 1 3
8 7 2 9 1 3 5 6 4
2 6 5 7 3 8 4 1 9
7 1 9 8 3 2 4 6 5
9 2 7 4 6 3 8 1 5
8 4 7 1 2 9 5 3 6
7 4 1 9 3 6 5 2 8
1 7 6 4 9 3 5 8 2
6 8 7 9 1 5 4 2 3
1 7 5 2 3 9 8 4 6
9 1 7 4 2 5 3 8 6
2 4 8 7 5 6 9 3 1
9 2 1 4 6 7 3 8 5
6 4 5 8 2 7 3 1 9
3 8 5 7 9 6 1 4 2
9 5 3 2 8 1 6 4 7
9 4 8 5 1 7 2 6 3

7
2BQ$`lQ
dxTuIv{`
aF
2MUU.p|
Il(:}Nk
<sT
7 5 2 4 1 6 3
2 1 5 7 6 3 4
7 1 6 2 5 3 4
4 6 1 7 3 2 5
1 5 2 6 3 7 4
1 4 5 2 3 7 6
4 1 3 5 7 2 6
2 5 3 1 4 7 6
1 6 4 2 5 3 7
2 1 7 3 6 5 4
7 5 2 6 3 4 1
6 5 7 1 3 2 4
4 2 6 7 5 3 1
7 2 6 3 4 1 5
7 2 5 1 3 4 6
3 1 6 2 4 7 5
1 4 5 3 2 6 7
2 3 6 7 5 4 1
1 4 3 7 5 2 6
1 4 2 5 6 7 3
1 4 3 2 6 5 7
3 2 4 5 7 6 1
1 4 5 7 3 6 2
4 3 7 5 1 2 6
5 6 2 7 4 1 3
7 6 2 3 5 1 4
7 2 3 6 1 4 5
6 5 4 3 1 2 7
5 4 7 2 3 6 1
1 7 3 5 2 6 4
2 1 3 7 5 6 4
7 3 2 1 5 6 4
1 4 6 7 3 2 5
3 2 5 6 1 7 4
6 4 5 2 1 3 7
4 3 5 6 1 7 2
7 5 4 3 2 1 6
2 1 5 3 7 4 6
7 4 2 1 5 6 3
1 2 3 6 4 7 5
2 4 7 6 3 1 5
6 7 3 2 1 5 4
1 5 3 2 7 6 4
7 6 4 1 3 5 2
7 5 2 1 3 6 4
4 7 3 6 1 2 5
5 2 6 1 4 3 7
1 4 2 3 6 5 7
6 1 5 2 7 3 4
3 4 1 5 2 7 6
3 5 7 4 6 1 2
4 3 5 7 1 2 6
4 5 6 3 1 7 2

6
SnLR}j
rJ
4
;+CQ\oonuz
8Jj+P4w2]
d
3 4 1 5 6 2
4 1 2 3 6 5
2 4 6 3 5 1
3 4 2 5 1 6
3 4 2 6 1 5
5 4 3 6 2 1
1 4 2 3 6 5
3 6 4 1 2 5
4 2 6 1 5 3
4 2 6 5 3 1
4 2 6 1 5 3
1 2 3 5 6 4
4 5 1 3 6 2
2 4 6 1 5 3
3 2 6 5 1 4
4 1 6 5 2 3
6 3 5 2 4 1
2 1 4 3 6 5
1 4 2 5 3 6
3 1 2 6 4 5
1 3 5 2 6 4

5
<"!U$
|t>}+B8Y(L
G\k/S?[
Bdx
J=Q
2 5 1 4 3
1 5 2 3 4
3 2 1 5 4
2 5 4 1 3
4 1 3 2 5
5 3 4 1 2
2 3 4 5 1
4 2 1 5 3
1 5 4 2 3
5 2 1 4 3
1 2 4 5 3
4 3 2 1 5
3 2 1 5 4
3 1 4 2 5
3 5 2 1 4
2 5 4 3 1
2 1 4 5 3
1 2 3 4 5
2 1 3 4 5
3 5 1 4 2
3 4 5 1 2
5 4 2 1 3
5 3 4 1 2
1 3 2 5 4
4 3 1 2 5
5 2 4 1 3
4 3 1 2 5
2 3 4 5 1
1 4 5 3 2
3 4 1 2 5
3 5 4 1 2
2 5 1 4 3
1 2 3 5 4
3 1 4 2 5
3 4 2 1 5
1 3 5 4 2
2 1 4 3 5
1 4 2 5 3
4 2 3 5 1
1 5 2 3 4
4 1 5 2 3
5 4 1 2 3
3 2 5 4 1
5 4 2 1 3
2 4 1 3 5
4 2 1 3 5
3 2 5 1 4
1 5 3 4 2
4 2 1 3 5
3 5 4 1 2
2 4 3 1 5
3 2 1 5 4
5 1 4 2 3
4 2 5 3 1
2 3 5 4 1
3 1 2 5 4
4 2 1 5 3
5 1 2 4 3
5 1 3 4 2
2 3 5 4 1
1 5 4 2 3
3 1 4 2 5
3 2 5 1 4
3 2 5 4 1
3 4 2 1 5
2 3 4 5 1
3 1 4 5 2
5 3 1 2 4
5 1 4 2 3
3 1 2 4 5
4 5 3 2 1
5 1 2 4 3
2 1 4 5 3
4 3 5 1 2

9
l{A-Zw
-=/&]
Sc;
H)Z0H=
_rl5&6E*{
1%8_
3`KgS
7m
6 3 1 2 8 9 5 7 4
8 2 5 7 4 6 1 3 9
9 8 6 1 3 7 5 2 4
1 2 7 9 3 5 4 8 6
9 3 1 6 5 8 7 2 4
3 6 7 1 9 2 4 8 5
6 3 5 7 8 2 1 4 9
6 1 8 9 3 5 4 7 2
1 3 7 9 2 6 5 4 8
5 8 2 6 9 3 7 1 4
6 8 2 9 3 7 1 4 5
2 8 3 4 1 7 6 9 5
7 1 3 6 2 9 4 5 8
9 5 3 7 2 6 1 4 8
2 4 1 3 9 5 6 8 7
8 1 2 7 3 6 5 9 4
6 4 5 1 3 9 2 7 8
9 3 7 2 1 4 6 5 8
9 5 3 7 4 6 8 1 2
6 5 7 2 1 9 8 4 3
4 7 2 9 8 1 5 3 6
7 2 4 6 9 3 8 1 5
3 1 2 8 4 9 6 5 7
4 6 2 5 3 1 8 9 7
4 2 7 9 1 8 6 5 3
6 2 9 4 5 7 3 8 1
8 2 5 6 7 3 4 9 1
5 1 8 9 3 2 7 6 4
2 9 8 1 4 7 5 3 6
5 9 4 1 6 7 8 2 3
8 4 7 5 6 3 9 2 1
9 6 2 5 7 1 3 8 4
7 2 6 4 9 1 3 8 5
3 9 1 5 2 8 4 7 6
7 4 3 5 9 6 1 2 8
3 1 9 2 5 8 6 7 4
8 4 7 1 2 3 6 5 9
8 3 2 6 1 4 7 9 5
9 7 8 5 1 2 4 6 3
1 5 6 4 2 7 8 3 9

8
a
`/$
r-6KX
07T
=#2!/)LL
@
IzdvW?+
n1C8QV^
5 7 4 6 8 2 1 3
6 2 1 7 5 8 3 4
8 4 7 5 1 6 2 3
8 5 3 6 7 1 4 2
6 7 5 3 2 1 8 4
8 1 4 6 3 5 7 2
8 5 6 4 2 3 1 7
8 7 3 5 4 2 6 1
7 1 8 3 5 2 4 6
8 3 5 2 6 7 1 4
3 8 4 7 5 2 1 6
5 4 8 2 3 7 6 1
7 1 3 6 5 8 2 4
2 1 7 4 5 3 6 8
8 2 4 3 5 7 1 6
5 4 3 8 7 6 2 1

1
7N.zIW
1
1
1
1
1
1
1
1
1
1
1
1
1
1
1
1
1
1
1
1
1
1
1
1
1
1
1

4
]5r1b
W
4 3 2 1
1 4 3 2
3 2 4 1
1 2 3 4
2 3 1 4
2 3 1 4
4 1 3 2
3 4 1 2
4 1 3 2
3 1 2 4

3
j
-;u$x
l
3 2 1
3 2 1
2 3 1
1 3 2
2 1 3
3 1 2
2 3 1
1 3 2
2 3 1
2 3 1
1 2 3
2 1 3
2 1 3
2 3 1
2 3 1
2 3 1
2 3 1
1 3 2
1 3 2
3 2 1
3 1 2
1 2 3
1 3 2
2 3 1
3 1 2
1 2 3
1 2 3
3 1 2
1 2 3
2 1 3
3 1 2
1 2 3
2 1 3
2 3 1
3 2 1
1 2 3
3 1 2
1 2 3
2 3 1
2 1 3
2 3 1

9
Db
WFk{
$
<
k_Tsu&8[
Z{4Lrqa
21t\k>A/
x}1-WRq#
ZT*P(
3 6 4 2 5 9 1 8 7
6 8 2 9 4 1 3 5 7
9 2 5 7 6 8 3 4 1
2 1 3 5 9 8 7 6 4
4 8 9 6 5 3 1 7 2
4 1 8 3 9 5 2 7 6
9 3 8 4 2 7 5 1 6
7 5 1 8 2 3 9 6 4
7 6 9 1 5 8 4 3 2
6 4 8 9 5 3 7 1 2
7 1 8 5 2 4 9 6 3

7
c_
3Hr]d
__IG| 5T
Dq#k0
NM#5ZAAn)J
"I3-} -0V
;;G
2 4 1 5 7 6 3
4 3 6 7 1 2 5
4 7 5 6 3 1 2
3 5 6 1 7 2 4
6 1 7 3 4 5 2
3 5 1 2 7 4 6
1 3 5 6 4 7 2
7 6 2 4 5 3 1
7 4 2 3 1 6 5
3 1 5 7 2 6 4
2 5 3 7 6 1 4
6 3 7 1 2 4 5
4 5 2 3 1 6 7
6 1 3 7 2 4 5
4 2 6 3 5 7 1
1 3 5 4 2 7 6
1 3 2 4 7 5 6
3 4 1 5 7 6 2
2 1 6 7 5 4 3
1 4 5 3 7 6 2
4 7 2 5 1 3 6
3 1 4 6 7 5 2
1 2 5 7 3 4 6
2 4 7 3 5 1 6
5 2 1 7 4 6 3
1 4 5 3 6 2 7
6 4 7 3 1 2 5
1 7 3 2 6 5 4
2 6 7 5 1 4 3

6
]$oNF'
(
"
zAIl}*b
.ti
8wD6U@Y[/
2 1 5 6 4 3
1 3 4 6 5 2
4 1 6 2 3 5
6 5 1 2 4 3
2 5 4 1 6 3
1 5 2 6 4 3
4 6 3 5 2 1
6 2 3 4 1 5
2 5 1 4 3 6

7
$M9}F
k-
sx-
$q,
u
27:O_lO
&)%LOR)9
4 7 1 5 2 3 6
7 6 5 4 1 3 2
3 2 6 4 1 7 5
6 1 4 3 2 7 5
7 4 6 2 3 1 5
3 1 5 6 2 4 7
7 5 1 2 4 3 6
5 1 4 6 3 7 2
3 1 2 7 5 4 6
2 6 3 5 4 7 1
2 5 6 4 3 1 7

1
fys$P
1
1
1
1
1
1
1
1
1
1
1
1
1
1
1
1
1
1
1
1
1
1
1
1
1
1
1
1
1
1
1
1
1
1
1
1
1

3
zRmR^Pt
QB
|\%$igt(
2 1 3
2 3 1
1 3 2
1 3 2
3 2 1
1 3 2
2 3 1
3 1 2
2 1 3
1 2 3
1 2 3
2 3 1
3 1 2
1 3 2
3 2 1
3 2 1
2 3 1
2 3 1
3 2 1
3 1 2

6
XB/1yW>VN
o 
m-P2k0xi4
m>J|fI[G2t
q
dK] .vKk
2 3 5 6 1 4
2 5 6 1 4 3
1 3 2 6 5 4
5 6 2 3 4 1
5 4 2 3 6 1
3 4 1 6 2 5
2 4 5 3 1 6
3 4 1 5 2 6
3 6 4 2 5 1
3 4 1 5 2 6
1 2 6 3 5 4
2 5 3 6 1 4
1 5 3 4 6 2
3 2 6 5 4 1
4 2 5 1 3 6
5 6 1 4 3 2
4 2 6 3 5 1
3 6 1 5 4 2
2 5 4 1 3 6
6 2 5 1 3 4
1 3 2 6 5 4
3 6 5 1 4 2
1 5 4 2 3 6
6 3 5 4 1 2
3 2 6 5 1 4
2 6 4 1 3 5
3 6 4 1 2 5
6 2 3 1 5 4
6 4 3 2 1 5
3 6 4 1 5 2
1 2 3 4 5 6
2 6 3 1 4 5
2 3 1 4 5 6
4 5 3 6 1 2
3 1 4 2 6 5
3 6 4 1 2 5
1 6 4 3 2 5
2 3 5 6 1 4
1 2 3 6 5 4
2 1 6 4 5 3
2 3 5 4 6 1
3 4 2 6 5 1
3 4 6 5 1 2
3 2 1 6 4 5
4 5 2 6 3 1

7
!7
`5X.lcBqJE
Yy\ymu
PnDEKIm
4hor3n-3r
r1"e`N+
"?9fei'
5 6 4 2 1 3 7
6 2 7 3 1 5 4
3 5 2 6 7 4 1
7 3 5 1 4 6 2
3 7 1 4 2 5 6
5 1 4 3 2 6 7
5 6 1 4 3 7 2
4 7 3 6 1 5 2
5 2 3 7 4 1 6
5 2 3 7 4 6 1

6
W/"?$/W
mD1<+z%PK
q%@nTmOI
lS'EA\&/^A
oz!+2
2\)vPHIO{I
2 6 4 1 3 5
3 5 1 2 6 4
5 4 2 6 1 3
3 4 5 6 2 1
1 2 5 4 3 6
2 3 1 5 6 4
4 1 3 6 2 5
6 1 3 5 2 4
4 2 5 3 6 1
6 4 2 5 3 1
5 3 1 4 2 6
1 3 4 5 6 2
1 3 4 6 5 2
6 1 3 4 2 5
5 6 1 3 2 4
2 1 5 4 3 6
2 6 5 4 1 3
2 1 3 6 4 5
6 2 3 5 4 1
2 1 6 3 4 5
1 5 2 3 6 4
5 2 1 4 6 3
2 6 3 4 1 5
5 6 3 2 4 1
3 5 1 4 6 2
3 6 2 5 1 4
4 2 5 6 1 3
2 4 5 1 3 6
5 3 2 6 4 1
6 2 5 3 1 4
5 6 4 1 3 2
3 4 2 1 5 6
3 6 5 1 2 4
3 1 4 2 5 6
4 2 5 6 3 1
6 2 1 3 5 4
5 4 6 3 1 2
6 3 2 1 4 5
4 1 6 3 5 2
4 2 6 1 3 5
4 3 2 1 6 5
6 3 5 4 1 2
5 1 3 4 6 2
6 1 3 5 4 2
5 1 2 3 4 6
2 3 4 5 1 6

7
<nI(7B7
t;o2do
B$
DJ{AYM
aAGl[6SE
Rzyap
\B0}sXt
4 7 1 6 5 2 3
7 5 3 6 2 4 1
6 4 3 5 7 1 2
4 6 1 5 2 3 7
3 2 1 5 7 6 4
5 3 2 4 6 1 7
3 7 4 6 1 5 2
7 4 2 5 1 3 6
3 2 5 6 7 1 4
2 4 5 6 1 7 3
6 2 1 3 7 5 4
3 4 1 7 5 6 2
2 4 7 6 1 5 3
3 2 7 4 5 6 1
4 1 5 2 7 6 3
4 3 5 6 7 1 2
6 1 3 5 4 7 2
4 3 5 2 7 1 6
6 1 5 4 2 7 3
2 6 1 4 3 5 7

5
x!^W%U#
-|o<k:oBA
1vuc is%t
B5q_
vuqk<'`c
3 1 4 2 5
2 5 4 3 1
5 3 2 1 4
5 1 3 2 4
4 1 2 3 5
5 3 4 2 1

3
V{.@P S
u^5%M
]rg\
1 2 3
3 1 2
1 2 3
3 1 2
2 1 3
3 2 1
2 3 1
1 3 2
1 3 2
3 1 2
3 1 2
3 2 1
1 3 2
1 2 3
3 1 2
2 1 3
2 3 1
1 3 2
2 1 3
2 1 3
2 1 3
1 3 2
2 1 3
2 1 3
3 1 2
3 1 2
2 3 1
2 1 3
2 1 3
2 1 3
3 2 1
2 3 1
1 3 2
2 1 3
3 2 1

6
vlSEa@ylI:
M.si]M0'}
V{2!
2P.
+_g)"e+
|
6 1 2 3 4 5
6 3 5 1 4 2

7
_i1spFlayB
A
cb#pvN0
K?
 
x#dYrj)(
1`:s
4 3 2 1 7 5 6
1 3 4 6 7 2 5
3 1 7 4 6 5 2
2 7 3 1 4 6 5
5 4 7 2 6 3 1
2 5 1 3 7 6 4
7 1 4 3 5 2 6
6 1 5 4 7 3 2
4 2 3 5 7 6 1
3 4 2 1 7 5 6
4 3 1 6 7 2 5
7 2 5 3 6 4 1
3 1 6 4 7 5 2
5 4 2 1 7 3 6
6 4 1 3 7 5 2
7 1 2 3 4 6 5
4 7 6 3 5 1 2
5 3 2 4 6 7 1
3 4 2 6 1 7 5
2 1 4 7 6 3 5
1 6 3 2 7 4 5
6 3 5 2 4 7 1
7 5 3 2 4 1 6
3 4 6 2 1 7 5
6 5 3 1 2 7 4

4
a<t;p5Cz G
XdM@/Fl9
3
SY,o(%H
1 2 3 4
1 3 4 2
3 2 1 4
3 1 2 4
1 2 3 4
2 3 1 4
2 1 4 3
3 1 2 4
1 2 4 3
3 2 4 1
2 1 3 4
2 1 3 4
2 4 1 3
1 3 4 2
1 2 4 3
1 2 3 4
4 3 1 2
2 1 3 4
4 3 1 2
4 1 2 3
3 4 1 2
4 1 2 3
4 2 3 1
2 3 1 4
1 4 3 2
4 2 3 1
1 3 2 4
3 2 4 1
3 1 2 4
3 1 4 2
1 2 3 4
3 1 4 2
2 1 4 3
4 1 2 3
4 2 1 3
4 3 1 2
3 4 2 1
2 1 3 4
3 1 2 4
3 1 2 4
2 4 3 1
3 4 2 1
4 3 2 1
2 1 3 4
2 3 4 1
4 2 1 3
2 3 4 1
4 3 2 1
2 1 3 4
1 2 4 3

5
+&I[aR}a7K
S
,$o#f
fXD6lm}8<'
7
1 3 4 2 5
5 2 4 3 1
4 5 2 3 1
3 5 2 4 1
5 2 3 1 4
1 2 3 4 5
4 5 2 3 1
2 5 4 3 1
4 5 1 3 2
4 3 1 5 2
4 2 1 5 3
2 5 3 4 1
2 3 5 1 4
2 4 3 1 5
3 2 5 4 1
5 4 1 2 3
4 2 1 3 5
3 1 2 4 5
5 2 4 3 1
3 4 5 1 2
2 5 4 1 3
1 3 5 2 4
2 1 4 5 3
2 4 1 3 5
1 2 3 5 4
2 3 4 1 5
5 3 2 4 1
2 3 5 4 1
1 3 4 5 2
1 3 2 4 5
5 2 3 1 4
4 5 2 1 3
1 2 5 4 3
1 2 3 5 4
5 3 4 1 2
5 1 3 4 2
1 3 2 4 5
2 1 3 4 5
5 1 4 2 3
5 1 2 3 4
2 3 5 4 1
3 5 2 1 4
3 1 2 5 4
1 4 5 2 3
1 2 3 4 5
5 3 1 2 4
5 2 3 4 1
1 4 3 5 2
3 4 2 5 1
5 3 2 4 1
2 5 1 3 4
4 3 1 5 2
2 1 5 4 3
2 1 3 5 4
1 3 2 4 5
2 4 5 3 1
2 3 5 1 4
5 4 3 2 1
1 4 2 3 5
2 5 1 3 4
2 1 4 5 3
2 5 4 1 3
2 3 4 1 5
4 5 2 1 3
1 3 4 2 5
4 5 1 2 3
3 2 5 4 1
4 1 5 3 2
3 4 5 2 1
3 4 2 1 5
5 2 1 3 4

4
<-U>w9Wv
`IC
31*^$
9Zb6LZv+-^
4 2 1 3
1 4 3 2
4 1 2 3
3 4 1 2
1 4 2 3
3 4 1 2
3 1 4 2
3 2 4 1
2 3 4 1
1 4 3 2
3 1 4 2
2 3 4 1
4 1 3 2
1 3 4 2
3 4 1 2
1 3 2 4
3 2 1 4
4 1 3 2
4 1 3 2
4 2 3 1
3 1 4 2
2 3 1 4
1 3 2 4
4 1 2 3
4 1 2 3
3 2 1 4
1 4 2 3
3 4 1 2
4 1 3 2
4 3 1 2
1 4 3 2
4 1 3 2
1 4 2 3
3 2 4 1
4 3 1 2
4 2 1 3
2 3 4 1
1 3 2 4
3 2 4 1
4 2 3 1
3 2 4 1
4 1 3 2
1 2 4 3
3 1 4 2
2 1 3 4
4 1 2 3
4 3 2 1
4 3 2 1
4 2 3 1
2 3 4 1
4 2 3 1
4 3 1 2
2 3 1 4
4 3 1 2
4 2 3 1
2 3 1 4
3 4 2 1
3 4 1 2
1 2 3 4
2 3 1 4
3 4 1 2
2 4 1 3
2 1 4 3
2 1 3 4
4 2 3 1
4 3 1 2
2 4 3 1
1 2 3 4
4 2 3 1
1 4 3 2
2 1 4 3
1 3 4 2
2 4 3 1
2 3 1 4
1 2 3 4

5
I
t(n
gy}^J;7\
N+R[RM,:wz
z=ROyu;&Oo
5 3 1 4 2
5 4 1 2 3
3 1 4 2 5
1 3 5 2 4
4 3 5 2 1
4 3 5 2 1
5 1 3 2 4
5 2 3 4 1
4 1 3 2 5
5 2 4 3 1
2 5 1 3 4
2 3 4 5 1
1 4 2 3 5
2 1 5 4 3
3 2 4 5 1
5 2 1 4 3
4 3 2 1 5
1 4 2 3 5
1 4 5 3 2
2 4 5 1 3
3 1 4 2 5
3 4 2 1 5
5 4 2 3 1
5 4 1 3 2
2 4 3 5 1
5 4 2 1 3
1 3 5 2 4
5 1 4 3 2
1 2 5 4 3
1 3 2 4 5
1 3 2 4 5
5 4 2 3 1
5 1 2 4 3
1 3 5 4 2
1 5 4 3 2
4 3 5 1 2
2 1 5 3 4
5 1 2 3 4
5 4 2 1 3
2 1 3 5 4
5 2 4 3 1
2 4 5 3 1
3 5 2 4 1
4 3 1 2 5
5 3 1 4 2
1 4 5 3 2
4 5 2 3 1
3 1 4 2 5
1 4 5 2 3
2 3 1 4 5
5 3 4 1 2
5 4 2 1 3
1 5 3 2 4
4 2 5 3 1
5 3 4 1 2
4 1 3 5 2
4 3 2 1 5
4 5 1 2 3
1 3 4 2 5
2 1 3 4 5
2 5 3 1 4
5 3 2 4 1
4 2 3 5 1
2 1 4 5 3
5 2 1 4 3
3 1 5 4 2
3 1 5 2 4
4 2 5 1 3
4 3 2 5 1

9
]3K
Y^lc
 UfH%Jj;gz
Jd
sPog$
2HMz[
hq^\*/G4a9
^wg
9 1 4 7 3 8 5 2 6
9 6 7 2 8 4 1 3 5
3 2 5 6 1 7 4 8 9
1 2 6 9 7 3 5 8 4
4 6 9 2 1 8 3 5 7
1 8 2 6 3 9 4 7 5
4 5 1 3 9 8 7 2 6
3 4 7 6 9 1 8 5 2
9 2 1 5 7 3 6 4 8
2 1 6 9 3 4 7 5 8
4 8 7 5 9 1 6 3 2
4 8 3 1 9 2 5 7 6
4 3 9 7 5 8 2 1 6
5 3 7 2 4 8 1 9 6
7 8 4 5 9 6 1 2 3
5 4 7 8 2 3 9 1 6
7 3 2 5 4 9 6 8 1
9 5 2 3 6 1 8 4 7
6 5 1 8 9 7 3 2 4
6 7 3 8 2 5 1 9 4
2 6 9 7 1 4 3 8 5
3 7 4 2 9 1 5 8 6
4 1 6 5 2 3 9 8 7
5 9 2 8 3 7 4 6 1
9 6 7 5 8 2 1 4 3
2 4 6 9 5 7 1 3 8
3 2 4 6 8 7 1 5 9
3 7 2 6 4 5 8 9 1
5 6 7 8 2 1 9 4 3
9 5 8 7 4 1 2 6 3
5 3 1 6 7 2 8 4 9
8 5 2 3 9 7 1 4 6
7 4 8 3 9 5 1 2 6
2 8 7 3 9 1 6 5 4
6 1 5 4 3 8 7 9 2
4 2 7 3 1 9 8 5 6
6 8 2 5 1 4 7 3 9
8 2 4 1 9 6 5 7 3
4 6 8 7 3 2 9 5 1
3 9 2 5 7 8 4 6 1
3 7 5 4 6 2 1 9 8
9 7 3 8 4 1 2 5 6
5 6 4 3 1 8 2 7 9
3 5 8 9 4 1 2 6 7
8 7 6 3 5 9 2 4 1
1 4 5 2 6 3 7 9 8
1 7 5 3 8 9 4 2 6
5 8 3 2 7 9 6 1 4
2 8 6 9 4 7 1 3 5
5 4 2 1 8 3 7 9 6
5 7 2 8 9 1 3 4 6
5 6 4 9 2 3 7 1 8
1 7 9 3 6 2 5 8 4
7 6 5 9 8 3 2 1 4
2 3 5 9 8 4 1 7 6
8 5 4 9 3 2 1 6 7
4 7 8 5 9 1 2 6 3
4 2 5 1 9 3 8 6 7
9 2 8 3 4 7 6 1 5
7 4 6 3 1 9 8 2 5
4 8 7 9 1 2 5 6 3

10
z!s1g /Ym
^*
IZa%`i/qT
/'1$
X
f
3kcOw BJ|
7'l
KuYz
<bHL
5 7 9 1 10 4 8 3 6 2
7 1 3 8 5 6 9 10 2 4
9 1 4 3 10 2 5 6 8 7
4 10 5 3 8 9 7 1 6 2
10 8 5 9 4 3 2 6 1 7
10 8 4 3 9 1 5 6 7 2
5 10 4 7 6 2 3 9 1 8
8 5 3 9 4 2 10 6 7 1
10 2 3 7 5 8 6 4 1 9
10 6 7 3 9 4 5 2 1 8

5
2*SC
hZJ
 0s
A3|}dX|`
}
3 2 1 4 5
3 4 5 1 2
4 2 1 3 5
4 5 2 1 3
3 1 5 2 4
5 4 3 1 2
4 2 3 1 5
5 2 3 4 1
5 3 1 4 2
5 3 2 1 4
3 2 4 5 1
1 3 5 4 2
1 3 4 5 2
3 4 1 2 5
5 2 3 1 4
2 3 4 5 1
1 2 3 5 4
1 3 2 4 5
1 5 3 2 4
3 2 5 1 4
3 5 1 4 2
4 5 3 2 1
1 2 3 4 5
1 5 4 3 2
2 5 1 4 3
4 5 2 3 1
2 1 5 3 4
4 3 5 1 2
1 4 2 3 5

8
Vq7pQ
6
o2X<.4;[}_
[x;TlbcAV0
nm;
rDa$L
3Q&O
'`N
8 6 5 1 3 7 2 4
2 3 7 1 8 5 6 4
6 7 4 3 2 5 1 8
6 8 2 4 1 5 3 7
6 1 2 4 7 3 8 5
1 4 6 7 2 8 5 3
3 4 8 1 7 6 2 5
5 6 1 3 7 8 4 2
7 8 5 4 1 2 6 3
7 6 5 8 2 1 3 4
4 1 5 7 3 8 6 2
2 6 8 1 5 3 4 7
8 4 3 1 5 6 7 2
8 4 7 1 5 6 2 3
2 5 8 7 6 4 3 1
6 5 1 7 3 2 4 8
3 2 1 4 6 8 7 5
2 6 7 3 1 8 4 5
8 4 3 1 6 5 7 2
6 1 7 4 2 8 5 3
1 7 5 4 8 3 2 6
8 5 1 3 4 2 6 7
8 5 3 1 6 4 2 7
2 4 1 6 7 8 3 5
2 8 4 7 1 5 3 6
4 1 3 6 2 5 8 7
5 4 1 3 2 7 8 6
2 7 5 4 3 1 8 6
3 1 2 6 8 5 7 4
5 2 6 3 8 1 7 4
3 2 7 8 4 1 6 5
5 2 6 3 4 8 1 7
8 5 1 6 4 7 3 2
8 6 3 1 5 7 4 2
5 6 8 3 7 4 2 1
8 2 5 6 7 4 3 1
7 5 4 6 8 2 1 3
8 4 7 2 5 1 3 6
8 5 6 3 7 2 4 1
2 1 6 7 8 4 3 5
8 1 3 6 2 7 5 4
4 6 5 3 1 7 8 2
5 2 7 4 3 8 6 1
3 4 2 1 6 8 5 7
1 7 4 3 6 2 5 8
8 1 4 5 2 6 3 7
3 7 5 6 4 8 1 2
4 6 1 3 2 8 7 5

1
>
1
1
1
1
1
1
1
1
1
1
1
1
1
1
1
1
1
1
1
1
1
1
1
1
1
1
1
1
1
1
1
1
1
1
1
1
1
1
1
1
1
1
1
1
1
1
1
1
1
1
1
1
1
1
1
1
1
1
1
1
1
1
1
1

9
WSRXRy#6S
cK3qb1
bTk h[?meu
@!$&Us
=\<OUP
kg^tZ(xLE_
pz0y5*
2"&wV#1}
p[+lE:cS
7 1 4 8 2 9 5 6 3
1 8 6 5 7 3 4 2 9
8 7 6 2 5 9 1 4 3
3 4 7 2 6 5 9 8 1
2 9 5 4 7 3 8 1 6
9 8 6 5 1 7 4 2 3
4 5 6 8 7 1 3 2 9
4 3 5 1 8 6 9 2 7
5 8 1 6 4 7 2 3 9
7 5 6 3 8 4 2 1 9
9 7 1 3 6 2 8 5 4
6 3 9 7 4 5 1 8 2
3 4 8 7 9 6 2 1 5
7 2 8 4 9 3 6 5 1
9 8 1 4 5 6 2 3 7
2 7 3 1 8 5 6 9 4
8 7 9 6 4 1 5 3 2
2 9 3 6 5 8 7 1 4
6 3 8 9 5 2 4 1 7
2 9 1 3 4 5 7 8 6
9 2 6 1 3 4 7 5 8
9 3 8 6 4 5 2 7 1
8 7 1 9 2 4 3 5 6
4 6 8 9 7 3 2 1 5
4 5 6 9 1 2 7 3 8
2 6 4 5 1 3 7 9 8
4 7 2 5 3 8 1 9 6
8 5 7 4 9 3 2 1 6
7 2 6 4 1 5 8 3 9
1 8 2 7 6 5 9 3 4
9 6 5 8 4 1 2 3 7
4 3 2 1 9 8 7 5 6
7 8 5 9 2 1 6 4 3
2 8 3 1 7 6 5 4 9
8 5 6 9 1 2 7 4 3
6 7 8 1 5 4 2 9 3
5 9 4 8 3 1 7 6 2
6 3 7 8 5 2 1 9 4

8
zplMGs
/uYZX4xnS
76.H.6@T?p
k2]5h+
".ZD
X}`
^Q
?XU
1 5 4 3 7 6 8 2
6 5 4 7 1 3 8 2
4 3 7 6 8 1 2 5
5 4 2 3 6 8 1 7
5 7 4 1 6 2 3 8
8 2 4 6 7 3 5 1
2 6 5 3 8 1 4 7
2 6 4 7 8 1 3 5
5 4 6 8 3 1 7 2
5 7 6 8 4 2 3 1
2 1 4 7 8 6 5 3
4 2 8 1 6 3 5 7
7 1 5 8 4 3 2 6
7 2 5 8 3 6 4 1
1 7 8 3 4 6 2 5
5 6 8 3 1 2 4 7
8 5 1 7 4 3 6 2
6 3 1 5 8 2 7 4
8 7 6 5 3 1 4 2
8 1 5 3 4 7 6 2
3 4 6 5 7 8 1 2
7 1 3 8 6 5 2 4
8 1 4 3 6 2 7 5
2 1 4 6 8 7 3 5
4 2 3 5 6 7 8 1
2 6 3 8 1 5 4 7
1 2 4 6 3 5 8 7
2 3 7 8 5 6 4 1
2 3 8 7 5 1 6 4
5 4 7 6 8 3 1 2
5 7 3 4 1 6 8 2
8 2 4 5 6 3 1 7
3 8 5 2 1 7 6 4
4 3 5 6 1 8 7 2

9
_8Yq=rK
bY&
o']_A2a
;8az=
Z}r|
cE$IHN0A
w
UYHA
|}Y!#5,^a
1 2 3 5 7 8 6 4 9
4 3 7 1 9 6 2 8 5
1 8 9 6 7 3 5 4 2
8 5 6 1 4 9 3 7 2
1 7 9 2 4 8 6 5 3
2 3 4 7 1 6 8 9 5
4 6 5 1 7 3 9 8 2
2 8 4 7 9 6 5 3 1
2 4 3 9 6 5 1 8 7
3 8 6 9 1 4 2 5 7
8 7 6 4 1 2 3 5 9
4 8 3 2 1 7 6 5 9
4 6 9 8 3 2 5 1 7
1 9 3 4 8 6 2 5 7
3 4 7 5 1 2 9 8 6
7 3 9 4 8 2 6 1 5
3 6 4 5 2 1 9 8 7
8 3 2 6 5 1 4 9 7
7 4 2 3 8 5 1 9 6
4 5 3 8 9 7 6 1 2
9 8 7 6 3 5 2 1 4
3 6 1 5 2 8 9 7 4
6 8 9 7 5 3 1 4 2
8 5 2 3 1 4 7 9 6
5 7 8 3 2 6 9 4 1
2 9 8 5 1 7 6 4 3
4 8 1 2 5 9 3 7 6
7 9 1 3 4 6 2 5 8
6 9 8 1 3 2 5 4 7
9 1 7 5 8 3 2 6 4
2 4 1 5 6 3 7 8 9
3 9 8 6 1 2 4 5 7
7 4 5 2 3 1 6 9 8
3 5 8 4 7 6 9 1 2
3 9 1 8 4 5 2 7 6
6 1 7 9 2 4 8 3 5
8 1 2 7 4 6 9 3 5

5
i
%9)
_('&f*
n[Qc]
UPw.
1 2 4 3 5
5 1 2 3 4
5 1 3 4 2
4 2 5 1 3
1 5 2 3 4
3 4 2 5 1
1 2 3 4 5
5 2 1 3 4
1 3 5 2 4
3 2 4 1 5
3 4 2 1 5
2 3 4 1 5
5 2 3 4 1
1 3 4 5 2

6
AC.9%$/
Ez#5N]
sXKA9D2q*,
F@}<
tF-'
;
6 5 1 4 2 3
4 2 1 3 6 5
2 3 6 1 5 4
5 3 2 4 6 1
5 1 6 4 3 2
3 6 1 4 2 5
2 4 3 1 6 5
5 3 4 6 2 1
1 5 6 3 2 4
5 2 6 1 4 3
3 2 5 6 4 1
6 2 3 4 1 5
3 1 2 6 4 5
4 1 6 3 5 2
6 2 5 4 3 1
3 1 6 2 4 5
2 4 6 1 3 5
6 4 1 3 2 5
2 1 6 4 5 3
2 3 6 5 4 1
6 5 1 2 4 3
1 6 4 5 3 2
2 6 1 4 5 3
1 3 2 4 5 6
3 6 5 1 4 2
6 4 2 3 1 5
4 6 1 5 3 2
4 5 1 6 2 3
6 4 2 3 5 1
3 4 1 6 5 2

6
v1m1ljqM
2;[7!l0RaD
T><
,};iPi
ye];fxL:46
-&8:
1 2 6 3 5 4
3 6 2 4 1 5
4 3 1 5 6 2
4 3 2 5 1 6
4 3 2 5 1 6
2 1 6 4 5 3
4 1 6 2 5 3
1 6 3 4 5 2
1 5 3 6 4 2
3 4 6 2 5 1
3 5 4 1 2 6
3 5 4 6 2 1
4 5 1 2 6 3
6 3 5 4 1 2
2 6 4 3 1 5
6 2 1 3 4 5
6 2 1 4 5 3
1 2 6 4 3 5
5 6 2 4 3 1
5 3 2 6 1 4
4 1 3 6 5 2
1 4 3 2 5 6
1 4 5 6 3 2
4 1 5 2 3 6
1 5 3 4 6 2
5 3 2 4 1 6
5 3 2 6 1 4
3 5 1 2 4 6
3 2 1 6 5 4
2 6 5 1 4 3
5 3 1 4 2 6
6 1 4 2 3 5
5 4 1 2 3 6
1 5 6 2 4 3
5 4 3 2 1 6
1 4 3 5 6 2
3 4 5 2 1 6
4 1 3 6 5 2
3 1 6 4 5 2
1 4 6 2 3 5
6 3 4 1 2 5
3 5 6 2 1 4
5 1 6 3 2 4
6 4 3 5 1 2
5 1 2 6 3 4
3 2 6 1 5 4
3 4 1 5 6 2
1 3 2 5 6 4
4 3 5 6 1 2
2 3 4 5 1 6
5 3 6 1 4 2
6 1 5 4 2 3
3 5 6 4 1 2
2 6 5 4 3 1
4 3 6 1 5 2
4 3 2 6 1 5
6 3 5 1 4 2
5 6 1 3 4 2
1 2 5 6 4 3
2 4 5 1 6 3

2
jM
Apg:gT
2 1
2 1
1 2
2 1
1 2
2 1
2 1
2 1
2 1
1 2
1 2
1 2
2 1
2 1
2 1
2 1
2 1
2 1
2 1
1 2
1 2
1 2
2 1
1 2
2 1
1 2
1 2
2 1
2 1
1 2
1 2
2 1
1 2
1 2
2 1
2 1
1 2
2 1

4
rh?i
z7G%
L?_Rk|EuZi
`Q<Z|
1 2 4 3
4 3 2 1
1 2 3 4
3 4 2 1
3 1 4 2
2 1 4 3
2 3 1 4
3 2 4 1
2 1 3 4
2 1 3 4
1 2 4 3
2 4 1 3
2 1 3 4
2 1 3 4
4 3 1 2
2 4 3 1
1 2 4 3
3 1 4 2
2 4 3 1
1 4 2 3
4 2 3 1
1 2 4 3
1 3 4 2
2 1 3 4
1 4 3 2
1 2 4 3
2 1 4 3
3 2 1 4
2 1 3 4
1 2 4 3
3 2 1 4
2 4 1 3
1 2 4 3
1 3 2 4
1 4 2 3
1 4 2 3
3 1 4 2
4 2 3 1
1 2 3 4
3 4 1 2
4 2 1 3
1 3 2 4
2 3 1 4

9
e(?%
:|v{+
c8M Qr;
<:\nZtl
"s
H''= undk
?
Uvg\wa
i}UBs
6 9 8 4 5 1 3 7 2
3 4 2 1 9 8 7 5 6
2 8 1 4 3 9 6 7 5
3 8 7 2 5 6 9 1 4
6 1 2 4 8 3 9 5 7
2 7 4 9 1 6 8 3 5
8 2 9 1 6 5 7 4 3
1 7 9 2 6 4 3 8 5
3 7 9 5 6 8 1 4 2
3 1 9 5 6 2 8 4 7
5 6 7 2 3 1 9 4 8
3 7 4 5 2 8 6 1 9
8 5 1 9 3 2 4 7 6
3 6 1 8 7 9 4 2 5
4 6 1 8 7 9 2 3 5
4 8 1 5 7 3 6 9 2
5 2 7 6 1 8 9 4 3
4 1 5 9 3 2 7 6 8
2 6 4 9 8 5 7 3 1
5 8 7 3 1 6 4 2 9
6 9 4 1 3 8 5 7 2

8
5G
:
JTF
Q=hJ3(
Km
'X:jux
)i&2yWQ&
EHS%"
3 2 7 5 8 1 4 6
6 8 1 4 5 7 3 2
6 2 1 5 7 8 4 3
7 2 5 1 8 3 6 4
4 6 8 3 1 7 2 5
3 6 7 4 2 8 5 1
8 4 5 2 3 1 7 6
5 4 6 7 1 8 3 2
4 6 2 8 3 1 7 5
7 5 4 6 8 1 2 3
6 2 7 5 8 3 1 4
7 8 3 2 4 1 5 6
5 1 8 2 4 6 7 3
7 2 6 5 1 3 8 4

4
`OBzqJ
v5dU0$
V3
)-|`
3 1 4 2
3 1 4 2
3 1 2 4
2 1 4 3
3 2 1 4
2 3 1 4
1 4 2 3
4 2 3 1
4 1 2 3
2 1 3 4
1 3 4 2

9
Y/K;|vp
(e/`BKOx\"
U,
fV@mZ
z36qF
8V%
*h*}oYo
On4webt6yz
$z
6 5 3 8 9 1 7 2 4
7 5 9 4 2 3 6 1 8
6 7 3 8 1 5 2 9 4
9 2 4 3 1 8 5 6 7
5 6 8 4 3 9 1 7 2
5 7 1 3 8 2 6 4 9
3 1 4 5 9 7 2 8 6
2 5 7 8 6 4 1 3 9
5 1 2 4 7 6 8 3 9
5 8 3 9 7 4 2 6 1
4 3 6 1 9 7 8 5 2
7 4 8 1 3 9 2 6 5
1 9 3 6 7 2 8 5 4
8 9 2 3 7 6 5 4 1
9 5 7 1 6 2 3 4 8
4 6 3 5 1 2 8 9 7
2 5 8 1 3 7 4 6 9
1 3 9 7 6 8 4 2 5
4 1 5 9 2 6 8 7 3
4 7 9 2 5 1 8 6 3
8 1 9 5 7 3 6 2 4
4 9 5 7 3 8 2 6 1
2 6 4 5 9 8 1 7 3
6 1 5 7 4 2 8 9 3
1 6 8 4 9 7 2 5 3
6 8 5 4 2 7 3 9 1
8 2 6 3 5 9 1 4 7
3 5 1 9 7 4 2 8 6
8 6 4 2 1 5 3 9 7
2 5 8 4 9 1 7 6 3
4 2 8 7 9 6 1 3 5
7 8 3 4 2 5 9 6 1
5 7 9 4 6 1 8 3 2
1 4 9 2 7 5 6 8 3
2 1 3 4 5 8 9 7 6
1 8 4 6 7 3 9 2 5
6 3 2 1 9 4 5 7 8
7 6 2 1 3 4 9 8 5
9 8 1 7 4 2 6 5 3
2 4 9 1 8 5 3 7 6

4
!R/n
|giN/ 
y
!V"x
1 3 2 4
4 1 2 3
1 2 4 3
4 3 1 2
2 3 1 4
4 2 3 1
4 3 2 1
3 2 1 4
1 3 2 4
3 1 2 4
4 1 2 3
4 3 1 2
3 2 4 1
4 2 1 3
4 1 2 3
1 4 2 3
1 3 2 4
2 3 1 4
1 4 2 3
4 1 3 2
3 1 4 2
3 1 2 4
4 2 1 3

10
(
[g
jT*^mN]
Av<R! {_X
PI\:vy
6h]
%D]0PpMb-d
&^Cl_ _Q3o
?kLtb@Ty
@s+Db
9 6 5 7 3 1 8 4 10 2
8 10 1 6 2 7 5 9 4 3
10 1 9 4 5 6 8 7 2 3
3 10 9 4 7 5 2 8 6 1
8 7 2 5 6 10 4 1 3 9
5 1 3 10 6 8 7 4 2 9
4 8 3 7 1 10 9 5 2 6
6 1 8 7 9 4 3 2 10 5
2 6 1 7 8 9 5 4 10 3
5 4 7 2 1 8 3 6 10 9
6 8 4 3 7 2 5 9 1 10
1 9 5 3 2 7 10 8 4 6
9 5 3 2 4 1 7 10 6 8
9 5 2 8 6 10 1 3 4 7
3 4 6 10 2 7 1 9 5 8
6 4 8 3 5 2 7 10 1 9
3 9 10 6 5 1 7 4 2 8
4 3 2 9 7 1 10 8 5 6
6 2 10 5 8 1 3 7 9 4
8 10 4 2 7 5 3 6 1 9
9 5 1 8 10 4 3 2 7 6
9 10 2 1 4 6 3 7 5 8
5 6 4 10 3 2 7 8 9 1
3 9 4 8 2 1 6 5 7 10
10 5 7 6 2 8 1 4 9 3
9 8 10 1 5 2 7 4 3 6
3 9 6 8 4 10 2 7 5 1
7 8 10 2 4 5 6 9 3 1
6 10 5 2 8 1 4 9 3 7
6 5 7 2 9 1 4 8 10 3
3 1 5 10 2 4 8 6 9 7
3 8 2 7 4 5 6 9 1 10

7
O
I
UTc"9,GfP3
m{$zSr[0
WLA<JKNvP
>UKBZ%J
@F6n
1 2 5 7 3 6 4
5 4 3 1 2 7 6
4 3 2 1 6 5 7
3 1 4 5 2 6 7
6 3 4 7 5 2 1
2 3 7 1 4 6 5
6 7 2 4 5 1 3
6 5 7 2 3 4 1
6 3 4 7 2 1 5
3 6 7 5 2 4 1
1 4 3 2 5 7 6
4 1 6 5 7 2 3
3 6 7 5 1 2 4
2 6 5 7 1 3 4
1 2 5 7 6 4 3
2 7 6 5 1 4 3
4 7 6 2 1 5 3
5 6 7 3 1 2 4
4 6 1 7 5 2 3
6 4 3 7 2 1 5
4 1 7 5 2 6 3
1 6 7 5 2 3 4
1 3 2 6 5 4 7
4 2 3 5 7 1 6
5 1 2 7 3 4 6
1 2 4 6 3 7 5
7 5 3 4 2 1 6
7 6 5 2 4 3 1
1 6 4 3 5 7 2
5 7 4 2 1 3 6
5 4 6 7 1 2 3
1 6 4 2 5 7 3
1 4 6 3 7 2 5
1 3 4 7 5 2 6
7 2 4 1 3 5 6
4 3 5 7 1 2 6
4 7 3 1 5 6 2
4 6 1 3 2 5 7
1 3 6 2 4 5 7
7 5 3 1 4 6 2
2 7 5 6 3 4 1
1 6 4 5 3 2 7
7 1 4 3 5 2 6
7 6 4 2 5 1 3
2 4 1 5 7 3 6
6 4 2 5 7 1 3
4 2 5 1 7 6 3
6 3 1 2 7 4 5
3 4 1 6 2 7 5
7 4 3 5 1 2 6

8
RG$}<p
z)S?g h
C
V
(
`c0B
F6by"ii(t
$1
5 7 3 1 8 4 2 6
2 8 4 3 5 6 7 1
1 4 7 8 2 5 3 6
6 2 8 1 5 3 7 4
8 4 5 7 3 6 1 2
6 4 8 7 1 5 2 3
1 2 3 5 8 4 7 6
3 6 7 1 4 5 8 2
6 3 2 1 4 8 5 7
6 7 3 2 4 5 1 8
7 4 8 6 5 1 3 2
5 8 6 4 1 7 3 2
1 5 2 3 6 4 8 7
5 3 8 4 2 6 7 1
7 8 2 5 6 3 4 1
2 3 8 5 6 7 1 4
7 5 6 8 2 3 4 1
8 2 6 7 1 4 3 5
2 4 3 5 8 1 6 7
5 1 6 2 3 4 8 7
8 3 4 1 7 6 2 5
5 2 7 4 3 6 1 8
7 8 2 4 3 6 5 1
7 1 4 8 5 3 2 6
8 6 4 3 1 7 2 5

1
n'uz[:
1
1
1
1
1
1
1
1
1
1
1
1
1
1
1
1
1
1
1
1
1
1
1
1
1
1
1
1
1
1
1
1
1
1
1
1
1
1
1
1
1
1
1
1
1
1
1
1
1
1
1

3
zF<}c
62?<`
4
3 1 2
3 1 2
3 1 2
1 3 2
2 3 1
1 3 2
2 3 1
3 2 1
1 3 2
3 1 2
1 2 3
2 3 1
2 3 1
1 3 2
3 1 2
1 2 3
3 1 2
1 2 3

9
8lkc
IPe
CCDx-e
j)\`@z2CW
az2!m, 
;R*2L5\
e 
uI5C3
$
8 7 4 9 3 2 5 1 6
1 3 4 7 6 9 5 8 2
1 5 8 4 7 2 6 9 3
8 9 1 6 7 3 4 2 5
3 4 6 2 7 8 9 1 5
6 5 3 4 7 2 9 1 8
3 8 6 1 5 7 9 4 2
2 8 1 5 6 7 9 3 4
2 9 1 7 5 4 6 8 3
9 1 4 5 6 2 8 3 7
3 4 5 6 9 8 2 1 7
4 5 3 7 6 1 8 9 2
1 6 3 9 2 8 5 4 7
5 6 9 1 8 4 3 7 2
9 6 7 3 2 5 1 4 8
4 1 8 6 7 2 9 3 5
3 9 5 4 6 7 1 8 2
7 9 6 5 8 1 3 4 2
9 8 3 2 5 7 6 4 1
9 1 8 4 7 6 3 5 2
5 2 1 4 8 7 3 9 6
8 9 3 5 4 7 1 6 2
1 4 3 5 2 8 7 9 6
6 8 5 7 1 2 3 4 9
7 9 3 8 1 2 5 6 4
3 8 4 5 2 1 9 7 6
6 7 1 8 3 5 9 2 4
2 4 9 8 6 7 3 5 1
7 1 3 5 6 9 8 4 2
8 6 4 7 3 9 2 5 1
8 7 3 2 1 9 6 4 5
2 5 7 4 8 1 9 6 3
2 9 6 4 3 7 8 5 1
3 1 6 2 5 9 7 4 8
5 3 6 2 8 1 9 4 7
5 9 8 4 6 2 7 3 1

7
^*
O33hoP$l
2@tWZr
}Y`"y
{[{&&3d[
7,yilP
SD?
5 3 7 1 2 4 6
7 2 6 1 4 3 5
3 6 4 2 1 7 5

5
8o
.jS
H$#[*
i>*hE!Xp
F-5
3 4 5 2 1
3 2 4 1 5
2 5 3 1 4
2 1 4 3 5
3 5 4 1 2
3 4 5 1 2
2 4 1 3 5
2 3 4 5 1
5 1 4 3 2
3 4 2 5 1
1 3 2 4 5
4 1 3 2 5
4 2 1 5 3
3 1 4 2 5
1 4 2 3 5
5 4 3 1 2
1 3 4 5 2
1 3 5 2 4
1 4 3 5 2
2 3 5 1 4
4 2 5 1 3
2 1 3 4 5
5 2 1 4 3
1 4 5 3 2

2
ra
h5JHw{N%n
2 1
1 2
2 1
2 1
2 1
1 2
2 1
2 1
2 1
2 1
2 1
1 2
2 1
1 2
2 1
1 2
1 2
1 2
1 2
1 2
1 2
2 1
2 1
1 2
1 2
1 2
2 1
1 2
2 1
2 1
1 2
1 2
1 2
1 2
1 2
2 1
1 2
2 1
1 2
2 1
2 1
2 1
1 2
2 1
1 2
1 2
1 2
1 2
2 1
1 2
2 1
2 1
2 1
2 1
2 1
1 2
1 2
2 1
2 1
1 2
2 1
2 1
2 1
1 2
1 2
1 2
2 1
2 1
1 2
1 2
2 1

4
N)j]c %
tOTB+7d2Qr
J&'
:IyKP7/^y*
4 3 2 1
1 4 2 3
1 4 2 3
3 2 1 4

6
z,*N,?USVv
Y:
Oiz=OPL
v2SvwlG_aD
I)VNZ
foCy8\;
5 6 3 4 1 2
2 5 4 3 6 1
3 4 2 5 1 6
6 1 2 3 4 5
4 5 2 1 6 3
4 1 2 3 6 5
5 1 4 3 2 6
5 2 4 1 3 6
3 4 5 1 2 6
4 1 5 6 3 2
1 2 4 6 3 5
4 2 3 1 5 6
1 3 4 2 5 6
2 1 6 4 5 3
3 2 1 4 6 5
2 4 1 5 6 3
3 4 2 6 1 5
4 5 2 6 3 1
3 5 4 6 1 2
4 6 2 3 5 1
3 4 2 5 6 1
5 2 4 1 3 6
1 6 5 4 3 2
4 6 3 1 2 5
1 6 5 2 3 4
1 6 3 5 2 4
3 2 6 1 4 5
6 5 2 1 3 4
5 3 4 1 6 2
1 3 5 2 4 6
1 2 6 3 4 5
6 5 2 1 4 3
6 2 3 4 5 1
4 5 2 6 1 3
2 6 1 5 4 3
3 1 2 5 6 4
4 5 2 1 3 6
1 4 3 6 5 2
4 6 5 1 2 3
2 1 6 4 5 3
1 5 4 3 2 6
6 4 1 5 3 2
1 3 6 5 2 4
4 3 5 6 1 2
2 3 4 1 5 6
3 1 2 6 4 5
6 3 4 2 1 5
1 2 6 4 5 3
1 4 5 2 6 3
4 5 1 3 2 6
6 1 3 2 4 5
2 1 6 3 4 5
2 5 4 1 3 6
3 2 1 4 5 6
1 6 4 3 2 5
5 2 3 4 1 6
4 2 1 6 5 3
2 1 3 6 4 5
6 1 3 5 4 2
1 5 2 3 6 4
4 2 3 5 6 1
3 2 1 5 6 4
4 6 3 1 2 5

4
V|<"Ddc3C-
g7P
/BK!jmC0J
:G}
2 3 1 4
4 3 1 2
1 2 3 4
1 2 3 4
1 2 4 3
4 1 3 2
2 4 1 3
3 4 2 1
1 2 3 4
1 3 2 4
2 3 4 1
1 3 4 2
1 2 3 4
4 2 1 3
3 4 1 2
4 1 2 3
1 3 2 4
4 1 3 2
1 4 3 2
2 4 3 1
3 4 1 2
3 1 2 4
3 4 1 2
3 2 4 1
1 4 2 3

6
c\$5a?8/u(
`GfB/pZ{|B
(`g%JN2
iQ7
i6HK?{W1o*
g
4 1 6 3 2 5
3 6 2 5 1 4
2 5 6 4 3 1
5 2 3 6 4 1
6 2 1 5 3 4
3 2 5 4 6 1
3 5 2 4 6 1
4 1 3 5 2 6
6 1 5 3 2 4
5 1 2 4 6 3
3 5 6 2 4 1
1 4 6 3 2 5
5 6 1 2 3 4
1 4 3 2 5 6
6 4 5 3 1 2
6 3 4 2 1 5

3
07>8?
bUn58R1{
^Ow[
1 2 3
2 1 3
2 3 1
1 2 3
1 3 2
3 1 2
3 2 1
2 3 1
2 3 1
1 3 2
3 1 2
2 1 3
3 2 1
3 1 2
3 2 1

1
tuVY{];3
1
1
1
1

2
ogAX4A:
\*a)B[&u
2 1
2 1
2 1
2 1
2 1
1 2
2 1
2 1
2 1
2 1
2 1
2 1
1 2
2 1
1 2
1 2
1 2
1 2
2 1
2 1

10
_=Y4.CjU3
VVn48.B8
uY
osbXkV
3
>n*FE8
p\2+
u|
FlGj*68v-
BP=
5 3 1 9 4 8 7 6 10 2
8 6 1 7 10 2 4 5 9 3
4 6 5 8 9 3 1 7 2 10
10 8 5 2 1 9 6 3 7 4
4 8 6 7 5 2 3 10 9 1
3 7 4 5 9 10 1 6 8 2
7 2 4 9 10 3 8 6 5 1
3 7 1 2 10 6 4 5 9 8
5 7 1 6 4 2 8 10 9 3
2 3 9 10 8 5 4 1 6 7
7 3 8 5 9 4 1 6 2 10
9 3 7 8 1 2 6 10 5 4
10 2 4 5 8 3 7 1 6 9
8 3 9 7 10 2 1 5 6 4
6 9 7 4 1 2 10 5 3 8
10 6 5 4 3 2 8 1 9 7
10 6 2 5 4 1 8 3 9 7
9 5 3 2 10 6 4 8 7 1
3 1 5 9 2 4 8 7 6 10
1 7 8 5 10 6 4 3 2 9
10 4 1 3 8 6 7 5 2 9

9
iZM*U
XxX$
>&Q
*m:G{{ov
y }
FA0H]
W!X'Fj
..48=/
8 3 1 4 2 9 7 6 5
1 9 3 6 8 2 5 4 7
4 2 8 7 6 9 5 1 3
1 7 6 2 8 9 4 3 5
2 5 1 4 8 3 9 6 7
6 5 9 4 7 2 8 3 1
1 2 6 8 7 4 3 5 9
7 6 3 5 1 4 8 2 9
4 8 6 1 7 3 2 5 9
8 5 6 4 2 7 1 9 3
3 1 4 5 8 9 6 2 7
2 5 9 4 6 3 1 7 8
9 7 3 6 1 5 2 8 4
9 6 4 8 2 5 1 7 3
7 3 2 6 8 1 9 4 5
6 4 8 1 7 9 2 3 5
9 3 2 8 4 7 1 6 5
8 4 7 3 1 9 2 5 6
6 5 9 1 2 8 4 7 3
9 4 3 1 7 5 2 6 8
8 5 7 3 9 6 4 1 2
7 5 3 4 6 1 9 8 2
6 4 5 2 9 1 7 8 3
6 4 8 7 3 5 1 2 9
7 6 4 8 9 5 1 3 2
8 9 6 3 7 5 1 2 4
6 9 7 3 1 5 8 2 4
3 6 2 5 1 9 7 4 8
7 4 8 2 9 1 3 5 6
9 4 5 3 7 2 1 8 6
5 8 9 7 1 4 6 2 3
8 1 9 7 6 4 2 5 3
7 3 5 6 2 1 4 9 8
3 1 7 2 9 8 4 5 6
5 6 1 2 9 8 3 7 4
9 4 2 3 6 5 8 1 7
2 8 1 7 5 6 9 3 4
3 1 7 2 5 9 8 4 6
4 6 7 8 3 2 1 9 5
8 5 7 9 3 2 4 1 6
8 5 9 2 4 7 6 3 1
2 1 5 8 6 3 4 9 7
3 9 7 2 5 4 1 6 8
6 2 4 7 9 8 5 3 1
5 1 9 7 4 3 2 6 8
5 8 6 2 7 9 4 1 3

1
;aFm?yk
1
1
1
1
1
1
1
1
1
1

5
Vvs
<9,Jh
^f
Y9Lqe4
Ya
5 3 4 2 1
5 4 1 3 2
3 4 2 1 5
1 4 3 5 2
4 2 5 1 3

8
yKI!g+::8
Fs8t.4
@vF
)
d
?.
7Bz
\<[c
4 2 8 1 6 3 5 7
3 1 5 4 7 6 2 8
6 3 1 4 5 8 7 2
6 4 3 2 8 7 5 1
8 6 2 5 4 3 7 1
1 5 7 4 2 6 8 3
8 7 6 2 5 1 3 4

4
7
DiIMXOIT
v_!R&}vM{
d?T'?%i8i
4 1 2 3
3 1 4 2
2 4 3 1
3 2 1 4
4 3 2 1
4 3 2 1
3 2 4 1
2 4 3 1
3 1 4 2
1 4 2 3
3 2 1 4
2 1 4 3
1 3 4 2
1 4 2 3
4 2 3 1
1 3 4 2
3 2 4 1
3 2 1 4
1 2 3 4
2 1 4 3
4 2 3 1
3 4 1 2
1 2 3 4
2 3 4 1
3 2 4 1
1 3 4 2
2 3 4 1
1 2 3 4
3 2 4 1
4 3 1 2
4 3 1 2
3 2 4 1
2 1 3 4
2 1 3 4
4 3 2 1
3 1 4 2
1 2 4 3
3 4 2 1
2 1 3 4
3 1 2 4
2 3 4 1
1 4 3 2
4 3 1 2
4 3 1 2
3 1 4 2
2 3 4 1
3 1 2 4
1 2 4 3
2 3 1 4
2 1 4 3

9
)'ZGiis\!
b?
 9=kD)Uq=n
@y ;A8
H<0gdv6
7Q^'_7
?bqi4<
[s>
+GhddgQ$t6
7 2 1 3 6 8 9 5 4
9 7 5 3 8 6 4 2 1
7 9 3 1 8 5 4 6 2
1 9 3 5 7 4 2 8 6
3 8 2 4 1 9 7 5 6
6 1 8 9 5 3 4 2 7
4 2 3 7 5 1 6 9 8
9 6 5 3 7 2 8 1 4
9 2 8 4 6 7 5 3 1
9 2 1 7 3 4 5 8 6
1 6 5 9 7 2 8 3 4
1 7 9 5 6 2 4 3 8
2 4 8 7 3 6 1 5 9
1 2 8 9 4 7 5 6 3
7 5 4 3 9 6 2 1 8
9 6 8 1 7 4 3 5 2
3 8 7 1 5 4 2 9 6
9 2 5 7 4 6 8 3 1
1 8 9 7 3 5 4 6 2
9 2 1 6 7 8 3 5 4
1 5 2 3 7 9 6 4 8
4 2 7 9 8 6 5 3 1
3 5 8 1 7 9 6 4 2
8 2 9 7 5 4 6 3 1
4 2 9 1 5 7 3 8 6
3 5 2 1 7 9 4 6 8
6 4 3 1 2 8 5 7 9
5 7 4 8 9 1 2 6 3
6 2 4 3 7 1 9 5 8
7 2 9 6 1 8 5 3 4
7 9 5 6 8 3 1 2 4
9 6 8 2 4 5 7 3 1
7 1 2 4 3 8 9 6 5
6 3 4 9 1 5 2 7 8
1 6 8 5 7 4 2 9 3
1 6 5 8 4 2 3 7 9
5 3 1 8 4 2 9 7 6
8 3 7 6 4 5 1 9 2
5 3 6 7 4 1 2 9 8
4 3 8 5 7 6 1 9 2
9 8 7 5 2 6 3 4 1
1 8 3 4 5 2 9 6 7
9 5 8 3 4 6 2 7 1
9 6 1 2 4 7 5 8 3
2 1 6 4 9 5 3 7 8
8 6 9 1 7 3 2 4 5
9 8 7 5 6 3 4 1 2
5 1 4 3 6 9 7 8 2
7 6 1 3 2 9 4 8 5
5 2 4 6 7 1 9 3 8
8 4 9 1 5 3 7 6 2
5 1 2 8 7 9 6 4 3
5 2 9 4 6 7 1 8 3
9 2 7 1 8 5 6 4 3
5 1 2 8 6 4 9 7 3
5 7 4 1 8 6 2 3 9
8 9 6 7 1 2 3 5 4
3 4 8 5 6 1 2 7 9
6 4 1 3 2 5 8 7 9
1 6 5 4 2 3 7 8 9
7 3 9 5 2 6 4 1 8
2 8 7 9 5 4 3 6 1
2 4 1 3 5 8 6 7 9

4
Zy97S*
U 
E
J@i/a
1 2 3 4
4 1 3 2
4 2 3 1
4 1 2 3
1 3 2 4
2 1 4 3
1 3 4 2
1 3 4 2
1 2 3 4
1 4 3 2
4 2 3 1
1 4 2 3
2 1 4 3
1 3 2 4
1 4 2 3
4 3 2 1
3 4 1 2
2 1 3 4
3 2 1 4
4 3 2 1
4 1 3 2
3 4 2 1
2 3 1 4
1 2 3 4
2 4 3 1

1
1t|L3e
1
1
1
1
1
1

9
a}.bu
w
F&7D.E&Y_"
l
X  l2U
vP!p="-
!
L]#l&a}1
|Eh>3!{o/
8 6 2 1 7 3 4 9 5
7 1 8 6 4 9 3 5 2
7 5 2 1 9 4 6 3 8
7 6 4 5 1 9 2 8 3
8 5 9 1 7 3 6 2 4
7 8 4 3 6 1 9 5 2
6 1 5 8 7 9 2 3 4
4 1 3 5 6 2 7 9 8
4 7 6 1 3 2 5 8 9
5 9 8 1 4 6 3 7 2
4 6 9 8 2 7 3 5 1
3 5 7 2 1 4 9 8 6
6 4 1 5 8 3 9 2 7
4 1 2 5 6 3 8 7 9
7 6 4 8 9 5 1 2 3
1 4 7 2 5 9 8 6 3
6 2 7 3 9 8 5 4 1
8 1 5 7 9 3 6 4 2
4 9 7 5 6 3 8 1 2
1 8 6 2 7 9 4 3 5
8 5 9 7 2 6 3 4 1
5 9 1 4 3 6 8 7 2
3 7 6 8 4 2 5 9 1
8 9 5 6 2 4 1 7 3
9 1 6 8 7 5 4 2 3
8 1 4 2 7 6 5 3 9
1 3 9 6 2 5 4 7 8
4 7 8 5 9 1 2 6 3
3 9 7 5 2 6 4 8 1
3 5 9 4 6 7 1 2 8
2 9 5 1 8 3 6 7 4
2 3 4 6 9 8 7 5 1
8 5 6 4 2 9 7 1 3
9 4 6 8 7 2 1 3 5
9 3 8 5 1 4 7 2 6
8 9 4 7 3 5 1 2 6
5 7 1 8 3 6 4 9 2
4 7 1 9 6 8 2 5 3
2 5 3 7 9 8 4 6 1
9 3 4 2 7 5 8 6 1
5 2 4 9 7 1 3 6 8
1 5 9 8 3 4 2 7 6
1 5 3 4 6 7 9 8 2
2 4 8 9 3 5 6 7 1
4 9 2 5 8 1 7 6 3
5 4 3 2 8 9 6 1 7
7 8 9 6 1 3 4 5 2
8 9 2 7 1 6 4 5 3
7 9 3 2 4 5 1 8 6

5
X_{aU`
S{3XF
&M>xO;Ycn
g
NN{_4
4 1 2 5 3
2 5 1 4 3
2 3 4 5 1
5 3 4 1 2
4 3 1 5 2
4 1 5 3 2
4 5 3 1 2
3 1 2 5 4
3 4 5 2 1
4 2 3 5 1
3 5 1 4 2
3 2 5 1 4
2 1 5 4 3
1 5 3 2 4
1 5 2 4 3
5 4 1 2 3
3 4 1 5 2
1 5 2 3 4
1 4 5 2 3
1 3 5 4 2
4 1 2 5 3
4 2 1 3 5
2 3 5 1 4
4 1 5 2 3
5 4 1 3 2
3 4 5 1 2
5 2 4 3 1
4 1 2 5 3
1 5 4 2 3
3 4 2 1 5
5 4 1 2 3
3 2 5 4 1
3 2 1 4 5
2 3 1 5 4
5 3 4 2 1
2 4 1 3 5
3 2 4 1 5
1 2 3 5 4
3 5 1 4 2
2 1 3 4 5
5 2 3 1 4
2 4 1 5 3
3 2 5 1 4
2 5 1 3 4
2 4 3 1 5
3 2 1 5 4
2 3 4 5 1
4 2 5 3 1
4 5 3 1 2
3 2 1 4 5
2 3 1 5 4
5 3 2 4 1
4 3 5 2 1
2 3 5 1 4
4 3 2 1 5
4 5 1 2 3
2 4 5 3 1

10
3
:&f
;1r
Vaup!/<z
)x
fo '
Q)A<u
Z-|pS>(
;}Df+
*2yaJ/!
9 10 2 6 3 1 8 7 4 5
6 8 3 2 5 1 7 9 4 10
6 3 7 2 8 1 10 9 4 5
6 5 1 4 2 3 9 10 8 7
7 4 3 1 5 2 6 9 8 10
9 3 1 6 4 5 8 2 10 7
8 2 3 9 1 10 6 7 5 4
10 3 2 9 1 4 7 5 6 8
1 4 8 6 10 5 3 7 2 9
6 8 5 4 2 7 10 3 1 9
1 6 7 3 4 5 8 2 10 9
8 9 5 7 3 1 4 2 10 6
4 7 5 6 8 9 2 1 10 3
7 6 4 3 10 9 2 5 1 8
3 8 10 7 4 5 1 2 6 9
8 2 3 7 6 4 10 9 1 5
3 2 4 7 10 6 1 9 8 5
2 9 5 3 10 4 7 6 8 1
7 3 5 6 8 10 1 9 4 2
10 7 3 8 2 5 4 9 1 6
7 8 10 9 4 3 5 6 1 2
2 10 9 8 1 5 7 3 4 6
6 7 9 1 10 8 4 3 2 5
2 4 10 7 8 9 6 1 3 5
6 2 3 4 9 5 7 8 10 1
8 4 6 2 9 3 10 1 7 5
2 7 1 3 10 9 6 4 8 5
1 4 9 2 6 7 5 10 8 3
10 6 2 9 1 5 3 7 8 4
1 8 7 10 3 2 5 6 4 9
4 7 10 3 9 6 8 1 5 2
8 4 10 2 5 6 7 9 1 3
1 3 8 9 7 10 5 2 4 6
3 1 5 8 2 7 6 9 4 10
9 10 6 3 2 5 7 1 8 4
8 2 4 7 5 6 9 3 1 10
7 6 10 4 8 9 1 5 2 3
7 5 8 4 10 1 3 2 9 6
1 4 10 8 6 5 9 2 3 7
4 5 6 2 10 1 3 9 7 8
10 3 6 8 1 2 4 5 9 7
9 4 7 10 2 3 1 5 6 8
8 10 6 2 5 1 3 9 4 7
2 10 5 1 3 6 4 9 7 8
6 3 2 7 5 4 8 10 1 9
10 2 6 3 4 9 1 8 5 7
10 5 8 2 7 3 6 1 4 9
8 2 6 1 7 4 9 10 5 3
3 2 4 6 5 1 9 8 10 7
10 8 4 2 3 6 9 5 7 1
6 4 5 1 3 2 10 8 9 7
3 8 1 7 9 10 4 6 5 2
1 7 10 5 9 4 8 3 2 6
9 3 10 8 1 7 5 6 2 4
3 2 1 8 6 10 9 5 7 4
9 7 3 2 10 4 5 8 1 6
5 6 9 10 2 3 7 1 4 8
7 2 3 6 10 8 1 9 5 4
9 6 3 4 10 7 2 1 8 5
3 5 7 9 10 6 8 1 2 4
6 3 8 9 7 4 1 5 2 10
2 5 7 9 3 10 1 6 8 4
9 5 1 7 10 8 4 3 2 6
10 7 2 5 8 9 6 3 4 1
8 7 5 10 3 9 1 4 6 2
9 10 2 5 1 7 4 8 3 6
3 8 2 6 4 1 10 9 5 7
10 7 9 8 5 4 2 3 6 1
9 7 6 5 1 3 4 2 8 10
7 10 2 3 5 9 8 4 1 6

8
V
X{0
$ '4ghaUt5
F jY"tf1
Z6S`2
1
\9rh;[i!!
1 2 6 7 3 4 5 8
8 7 6 2 4 5 1 3
1 3 4 6 7 5 8 2
8 5 6 7 3 4 2 1
2 7 5 1 8 4 3 6
1 3 8 2 6 5 7 4
2 6 8 5 7 3 4 1
1 4 2 3 5 8 6 7
4 3 5 2 6 1 8 7
1 6 4 2 8 7 3 5
3 5 1 7 6 8 2 4
5 8 6 2 7 1 3 4
1 4 7 3 5 2 8 6
2 4 1 3 5 7 8 6
1 4 7 2 8 5 6 3
1 3 2 5 6 4 7 8
7 2 1 3 4 8 6 5
1 8 6 2 4 7 3 5
7 8 4 5 2 1 3 6
7 4 3 1 5 8 6 2

4
R'zgM
2)kVxf
. P"+(<^
AxS]
1 2 4 3
3 1 2 4
3 1 2 4
4 2 1 3
3 4 1 2
2 4 3 1
2 3 1 4
3 4 2 1
2 3 1 4
1 3 4 2
2 4 3 1
1 4 2 3
4 1 3 2
2 1 4 3
1 3 2 4
1 3 4 2
3 2 1 4
2 1 3 4
2 1 4 3
1 3 2 4
4 2 1 3
4 1 3 2
3 4 1 2
1 2 4 3
1 2 4 3
2 4 1 3
2 4 3 1
3 4 2 1
2 3 1 4
4 3 1 2
1 4 3 2
2 4 3 1
1 4 2 3
2 3 4 1
2 3 1 4
4 1 3 2
4 1 3 2
1 2 4 3
3 4 1 2
2 3 4 1
2 4 3 1
1 3 4 2
3 4 2 1
4 3 1 2
1 3 4 2
2 1 4 3
1 4 2 3
1 4 3 2
1 3 4 2
3 4 1 2
3 4 2 1
1 3 2 4
1 4 3 2
1 2 4 3
1 4 3 2
1 4 2 3
2 3 1 4
2 3 4 1
2 3 4 1
1 2 4 3
3 4 1 2
4 1 2 3
2 3 4 1
2 1 4 3
1 3 2 4
2 4 3 1
2 3 1 4
2 1 3 4
4 1 3 2
4 2 1 3

10
&FQ*@#$k
!Y<D
?<8YRsBk|
:E:z#rMu+
veCh%/!4O
$*e
6yW.Y4E 
JT
b'
9
9 3 4 8 6 2 7 10 5 1
8 7 3 5 2 4 9 6 10 1
5 3 7 1 8 9 10 2 4 6
4 2 7 5 3 8 6 10 1 9
10 7 2 3 4 5 8 1 6 9
7 10 8 5 9 3 4 6 2 1
2 5 9 4 8 10 3 6 1 7
1 3 10 9 6 7 5 4 8 2
10 1 3 2 4 5 6 8 9 7
3 5 1 8 2 10 7 6 4 9
10 3 8 9 1 2 4 7 5 6
6 9 10 3 5 4 1 2 8 7
6 5 2 9 8 10 4 3 1 7
10 3 9 6 5 2 1 7 4 8
8 3 1 7 6 9 2 4 10 5
5 1 8 6 7 4 10 2 3 9
10 1 4 5 3 8 2 9 6 7
5 9 6 7 4 8 2 3 10 1
2 3 9 10 1 7 8 6 4 5
9 3 2 6 1 4 7 8 5 10
5 9 10 3 4 8 1 7 2 6
6 4 8 7 5 9 3 10 1 2
1 2 4 9 5 3 7 8 10 6
4 3 1 5 9 6 8 10 7 2
8 3 9 4 6 1 2 5 7 10
2 4 9 6 7 1 5 10 8 3
1 4 2 9 8 7 3 6 5 10
10 2 4 7 9 1 5 3 6 8
7 10 8 4 6 2 9 5 3 1
2 9 1 8 6 10 3 5 4 7
1 2 6 5 3 7 8 4 10 9
7 6 9 4 8 3 10 1 5 2
5 9 3 4 2 10 1 8 6 7
4 2 8 9 5 7 3 6 1 10
3 7 1 6 2 5 8 10 9 4
6 3 9 8 5 2 10 4 1 7
5 1 3 10 6 7 8 9 4 2
4 8 9 2 7 1 5 6 10 3
9 3 6 10 4 5 1 7 8 2
2 10 4 5 1 9 3 8 7 6
6 4 2 7 3 5 9 10 1 8
7 6 10 3 4 1 8 5 9 2
10 2 5 8 1 6 7 9 3 4
2 3 4 1 5 6 9 10 7 8
8 10 5 4 9 3 7 2 1 6
4 8 2 6 5 1 10 3 7 9
8 9 7 3 1 10 5 4 6 2
4 9 3 2 1 10 5 7 6 8
10 7 5 9 4 8 6 3 1 2
4 10 7 9 3 8 1 6 5 2
4 10 8 7 1 9 6 2 3 5
2 3 5 9 10 8 7 4 1 6
5 2 10 9 4 7 8 6 1 3

8
l0T<
YF
4?H
ym`_+>Q
8:K]
\`.zW2)
nD|@
vmHy`9nO
5 3 6 2 1 7 8 4
3 6 7 5 8 1 4 2
6 1 5 8 3 7 2 4
7 4 3 6 2 5 8 1
5 4 1 6 7 2 3 8
7 8 6 5 1 2 3 4
6 7 2 4 1 5 3 8
6 4 3 5 2 1 7 8
7 8 4 6 1 5 3 2
6 2 4 3 7 5 1 8
2 7 8 4 3 6 1 5
7 5 2 1 3 6 8 4
8 1 4 6 3 7 5 2
8 5 3 2 6 7 1 4
5 8 7 6 4 3 2 1
3 5 6 4 1 8 2 7
6 1 5 7 2 8 3 4
1 2 5 3 7 4 6 8
8 1 3 5 4 2 6 7
6 7 4 1 3 5 2 8
5 1 7 3 2 8 4 6
7 6 5 2 1 3 4 8
3 7 8 2 6 4 5 1
2 4 8 3 1 6 5 7
5 1 7 8 4 6 3 2
8 1 5 4 6 3 7 2
1 4 7 8 2 3 5 6
6 1 5 3 2 7 8 4
2 5 7 3 4 1 8 6
7 6 2 1 5 8 4 3
6 1 4 5 3 7 2 8
2 3 5 4 8 7 6 1
6 5 4 2 7 8 1 3
3 8 5 4 1 7 2 6
6 3 2 1 5 7 4 8
7 8 6 4 1 2 3 5
3 2 4 6 7 8 1 5
7 1 4 5 2 6 8 3
5 6 1 2 3 7 8 4
2 1 7 5 8 4 3 6
8 4 3 5 6 7 1 2
1 6 2 7 4 3 5 8
2 1 4 6 3 8 5 7
2 8 1 7 4 5 3 6
7 2 8 6 5 3 4 1
6 4 3 2 5 8 7 1
7 4 8 6 1 2 5 3
1 8 3 5 7 2 6 4
5 4 7 2 3 6 8 1
6 5 8 1 4 7 3 2
2 7 3 4 5 1 8 6
8 2 7 1 4 5 6 3
8 3 4 5 1 2 6 7
5 1 7 2 3 8 6 4
3 2 4 5 1 6 8 7
8 5 6 1 4 2 7 3
3 7 2 1 5 4 6 8

8
!:"#!
Y 
=^)s5uK
S!o(eJk]r3
a
d
<On$0$ni@@
Vd&2Nm[:wo
2 1 6 7 8 3 5 4
7 5 2 6 3 4 1 8
1 4 8 2 5 3 7 6
8 6 7 5 2 4 3 1
4 7 8 1 2 5 6 3
8 1 7 6 2 3 4 5
1 5 4 8 7 6 2 3
6 3 2 4 7 5 8 1
7 4 6 5 8 1 2 3
1 8 4 3 7 5 2 6
5 6 4 3 7 2 1 8
7 6 2 5 3 1 4 8
2 6 8 7 1 5 3 4
5 2 8 1 6 3 7 4
3 5 1 7 4 8 2 6
8 1 4 2 5 3 6 7
7 2 8 3 4 1 6 5
3 2 1 6 4 8 5 7
7 8 1 3 5 4 2 6
6 4 2 5 8 7 1 3
6 2 4 7 5 1 3 8
5 1 4 2 6 8 7 3
4 5 1 8 7 3 2 6
7 4 6 3 2 5 1 8
2 6 8 7 1 5 3 4

6
jcr< iB
;}V
n!&7
l*Hj&DMkZ
:iKf-{8Vi
(0$bv>
3 4 6 5 2 1
3 1 6 2 5 4
2 5 1 4 3 6
2 6 3 4 5 1
3 2 5 1 4 6
6 5 1 3 4 2
4 3 5 2 6 1
1 6 3 2 4 5
5 1 6 3 2 4
6 4 1 2 5 3
5 6 3 2 4 1
4 1 6 3 2 5
6 3 5 4 2 1
1 5 6 3 4 2
5 1 4 2 6 3
5 1 3 2 4 6
6 1 4 3 2 5
2 5 4 1 6 3
5 2 6 1 4 3
3 6 1 5 2 4
6 4 2 1 3 5
3 2 4 6 5 1
6 2 5 3 4 1
2 4 5 1 3 6
2 1 3 6 4 5
5 3 2 4 6 1
4 1 6 2 5 3

7
<|21VHe
F{$Y} H
t!zV_Y
ZHbME>Luy
xdu@de<
evLJ@
k.Lm@K
7 5 4 3 2 6 1
7 4 3 5 1 6 2
7 3 4 1 2 6 5
4 2 5 7 1 3 6
3 1 7 5 2 6 4
6 2 7 3 5 1 4
4 7 2 5 1 6 3
2 3 1 6 5 4 7
4 3 1 7 2 5 6
5 2 6 4 3 7 1
5 1 3 7 4 6 2
3 2 6 5 4 1 7
2 7 6 5 3 4 1
4 1 5 7 3 2 6
7 3 2 6 5 1 4
5 6 2 3 1 7 4
4 2 1 3 6 7 5
3 6 5 7 1 4 2
5 1 6 3 2 4 7
7 5 6 4 2 3 1
3 6 4 2 5 7 1
2 5 6 4 7 1 3
5 6 2 4 7 3 1
2 3 4 1 6 7 5
3 5 1 7 4 2 6
7 1 5 6 4 3 2
2 5 3 4 7 1 6
2 5 4 3 6 7 1
4 7 2 6 3 1 5
5 1 6 7 3 2 4
5 6 7 4 2 1 3
4 2 3 6 5 1 7
6 4 2 1 5 3 7
1 4 7 5 6 3 2
4 6 2 1 5 3 7
7 1 2 5 6 3 4
6 1 4 5 7 3 2
7 4 5 3 1 2 6
3 4 6 7 5 2 1
7 5 2 1 3 6 4
7 2 5 1 3 4 6
5 7 3 6 1 4 2
5 3 1 4 6 7 2
6 5 2 1 4 3 7
1 4 5 3 2 7 6
4 1 2 7 6 3 5
2 4 3 6 5 7 1
5 3 1 6 4 7 2
3 2 4 5 6 1 7
1 7 4 3 2 6 5
6 2 7 3 1 5 4
7 1 5 4 2 3 6
7 5 3 6 1 4 2
6 4 1 3 5 2 7
2 3 5 1 4 6 7
7 1 2 6 4 3 5
4 3 2 5 1 6 7
6 2 7 3 1 5 4
1 6 4 5 3 7 2
2 1 5 6 7 4 3
6 5 7 2 4 3 1
1 2 6 7 4 5 3
